[{
    "url": "http://local.widgetic.com:8082/node_modules/blogvio_workbench/public/Miaow-07-Bubble.mp3",
	"artist": "Miaow",
	"title": "Bubble"
}, {
    "url": "http://local.widgetic.com:8082/node_modules/blogvio_workbench/public/Hungarian Dance.mp3",
	"artist": "Evgeny Grinko",
	"title": "Hungarian Dance"
}]